^C:\USERS\PEEBL\DESKTOP\FVTC\C++\SLP.PLAYINGCARDS\SLP.PLAYINGCARDS\MAIN.CPP
C:\USERS\PEEBL\DESKTOP\FVTC\C++\SLP.PLAYINGCARDS\SLP.PLAYINGCARDS\DEBUG\VC141.PDB
C:\USERS\PEEBL\DESKTOP\FVTC\C++\SLP.PLAYINGCARDS\SLP.PLAYINGCARDS\DEBUG\VC141.IDB
C:\USERS\PEEBL\DESKTOP\FVTC\C++\SLP.PLAYINGCARDS\SLP.PLAYINGCARDS\DEBUG\MAIN.OBJ
